{
  "data": [
    {
      "featuredImage": {
        "url": "https://images.unsplash.com/photo-1517694712202-14dd9538aa97?auto=format&fit=crop&w=800&q=80",
        "altText": "A student learning Artificial Intelligence from scratch on a computer, featuring a futuristic neural network graphic on the screen."
      },
      "_id": "69e60f87766b14b7de9dbed1",
      "title": "How Long Does It Take to Learn AI from Scratch?",
      "slug": "how-long-does-it-take-to-learn-ai-from-scratch",
      "metaDescription": "Find out how long it takes to learn AI from scrape. Get a timeline literacy stages and tips to master artificial intelligence.",
      "keywords": [
        "how long does it take to learn AI",
        "learn AI from scratch",
        "AI learning timeline",
        "AI for beginners",
        "AI course duration",
        "machine learning learning time",
        "how to learn AI fast",
        "AI roadmap 2026"
      ],
      "publishDate": "2026-04-20T00:00:00.000Z",
      "author": "Neotech Solutions Editorial Team",
      "category": "Artificial Intelligence",
      "readTime": 12,
      "createdAt": "2026-04-20T11:35:35.727Z",
      "updatedAt": "2026-04-20T11:37:34.669Z",
      "__v": 0
    },
    {
      "featuredImage": {
        "url": "https://images.unsplash.com/photo-1517694712202-14dd9538aa97?auto=format&fit=crop&w=800&q=80",
        "altText": "Top SEO skills 2026 for freelancing success with digital marketing workspace and analytics"
      },
      "_id": "69e3639963d73b3824879bcb",
      "title": "Top SEO Skills to Learn in 2026 for Freelancing Success",
      "slug": "top-seo-skills-to-learn-in-2026-for-freelancing-success",
      "metaDescription": "Learn the top SEO skills to master in 2026 for freelancing success. Start earning online by building high-demand SEO expertise step by step.",
      "keywords": [
        "SEO skills for freelancing 2026",
        "SEO skills for beginners",
        "freelancing SEO skills",
        "learn SEO 2026",
        "SEO career skills",
        "keyword research skills",
        "on-page SEO skills",
        "technical SEO basics",
        "SEO freelancing Pakistan",
        "digital marketing skills 2026",
        "SEO expert skills"
      ],
      "publishDate": "2026-04-18T00:00:00.000Z",
      "author": "Neotech Solutions Editorial Team",
      "category": "SEO",
      "readTime": 12,
      "createdAt": "2026-04-18T10:57:29.417Z",
      "updatedAt": "2026-04-18T11:15:18.849Z",
      "__v": 0
    },
    {
      "featuredImage": {
        "url": "https://images.unsplash.com/photo-1517694712202-14dd9538aa97?auto=format&fit=crop&w=800&q=80",
        "altText": "AI in digital marketing and web development with robot and laptop concept"
      },
      "_id": "69e241db37abee5ef52fea6b",
      "title": "How AI is Changing Digital Marketing and Web Development",
      "slug": "how-ai-is-changing-digital-marketing-and-web-development",
      "metaDescription": "Discover how AI is transforming digital marketing and web development in 2026. Learn trends, tools, and how businesses can stay ahead.",
      "keywords": [
        "AI in digital marketing and web development",
        "AI in marketing 2026",
        "artificial intelligence in web development",
        "AI tools for marketers",
        "AI automation marketing",
        "future of web development AI",
        "AI SEO tools",
        "AI content creation",
        "AI trends digital marketing",
        "machine learning marketing"
      ],
      "publishDate": "2026-04-17T00:00:00.000Z",
      "author": "Neotech Solutions Editorial Team",
      "category": "Artificial Intelligence",
      "readTime": 12,
      "createdAt": "2026-04-17T14:21:15.709Z",
      "updatedAt": "2026-04-17T14:21:15.709Z",
      "__v": 0
    },
    {
      "featuredImage": {
        "url": "https://images.unsplash.com/photo-1517694712202-14dd9538aa97?auto=format&fit=crop&w=800&q=80",
        "altText": "A visual guide showing how to start learning data analysis with zero experience in 2026, featuring a marketer and tools."
      },
      "_id": "69e0ea226d4281522b3353c3",
      "title": "How to Start Learning Data Analysis with Zero Experience (2026)",
      "slug": "how-to-start-learning-data-analysis-with-zero-experience-2026",
      "metaDescription": "Want to become a Data Analyst in 2026? Learn the exact roadmap—from Excel and SQL to Power BI—for beginners with zero experience. Start your journey today!",
      "keywords": [
        "Data analysis for beginners 2026",
        "how to become a data analyst with no experience",
        "data analysis roadmap for beginners",
        "learn SQL for data analysis",
        "Excel for data analysts",
        "data analyst career path 2026",
        "free data analysis courses",
        "how to build a data analysis portfolio"
      ],
      "publishDate": "2026-04-16T00:00:00.000Z",
      "author": "Neotech Solutions Editorial Team",
      "category": "Data Analysis",
      "readTime": 12,
      "createdAt": "2026-04-16T13:54:42.488Z",
      "updatedAt": "2026-04-16T13:54:42.488Z",
      "__v": 0
    },
    {
      "featuredImage": {
        "url": "https://images.unsplash.com/photo-1517694712202-14dd9538aa97?auto=format&fit=crop&w=800&q=80",
        "altText": "An infographic showing a digital marketer using ChatGPT to write high-converting Facebook ad copy for business owners in Lahore."
      },
      "_id": "69dfc3430da760dd871a6f70",
      "title": "How to Use ChatGPT to Write Ad Copy That Actually Converts (2026 Guide)",
      "slug": "how-to-use-chatgpt-to-write-ad-copy-that-actually-converts-2026-guide",
      "metaDescription": "Struggling with low-converting ads? Learn how to use ChatGPT to write high-converting ad copy for your small business with these simple, proven prompts.",
      "keywords": [
        "ChatGPT ad copy for small business",
        "how to write converting Meta ads with AI",
        "ChatGPT prompts for high-converting Facebook ads",
        "AI ad copy tutorial for beginners",
        "writing persuasive ad copy using ChatGPT step-by-step",
        "ChatGPT vs manual ad copywriting for small brands",
        "Meta ads lead generation tips",
        "AI marketing strategies for small business",
        "local SEO ad copy",
        "digital marketing automation with AI"
      ],
      "publishDate": "2026-04-15T00:00:00.000Z",
      "author": "Neotech Solutions Editorial Team",
      "category": "Artificial Intelligence",
      "readTime": 12,
      "createdAt": "2026-04-15T16:56:35.886Z",
      "updatedAt": "2026-04-15T16:56:35.886Z",
      "__v": 0
    },
    {
      "featuredImage": {
        "url": "https://images.unsplash.com/photo-1517694712202-14dd9538aa97?auto=format&fit=crop&w=800&q=80",
        "altText": "A professional digital illustration showing a structured MERN Stack roadmap toward a future tech landscape in 2026, with labeled pillars for MongoDB, Express.js, React.js, and Node.js for beginners starting their full-stack development journey."
      },
      "_id": "69da381b37815142e678c77e",
      "title": "MERN Stack Roadmap 2026: A Practical Guide for Beginners",
      "slug": "mern-stack-roadmap-2026-a-practical-guide-for-beginners",
      "metaDescription": "Want to master the MERN stack in 2026? Follow this practical, project-based roadmap by Neotech Solutions designed for beginners to become job-ready.",
      "keywords": [
        "MERN stack roadmap 2026",
        "how to become a full stack developer",
        "learn MERN stack in Pakistan",
        "web development roadmap for beginners",
        "Neotech Solutions",
        "MERN stack tutorial",
        "full stack development career",
        "learn coding in Lahore",
        "programming for beginners 2026",
        "React.js guide",
        "Node.js and Express tutorial",
        "MongoDB for beginners",
        "how to start freelancing in tech",
        "tech skills for international jobs",
        "practical web development course",
        "coding roadmap 2026"
      ],
      "publishDate": "2026-04-11T00:00:00.000Z",
      "author": "Neotech Solutions Editorial Team",
      "category": "mern",
      "readTime": 12,
      "createdAt": "2026-04-11T12:01:31.061Z",
      "updatedAt": "2026-04-11T12:01:31.061Z",
      "__v": 0
    }
  ],
  "total": 49,
  "page": 0,
  "totalPages": 3
}


